Solution for Week 1: Vector Data Processing
…
# Merge datasets to compute the percentage
forest_coverage <- left_join(canton_forest_area, canton_total_area, by = "name") %>%
  mutate(ForestPercentage = (ForestArea / TotalArea) * 100)

# Print results
print(forest_coverage)

Simple feature collection with 26 features and 4 fields
Geometry type: MULTIPOLYGON
Dimension:     XYZ
Bounding box:  xmin: 2485429 ymin: 1075268 xmax: 2833012 ymax: 1295934
z_range:       zmin: 192.853 zmax: 2446.83
Projected CRS: CH1903+ / LV95
# A tibble: 26 × 5
   name          ForestArea                      geom TotalArea ForestPercentage
 * <chr>              [m^2]        <MULTIPOLYGON [m]>     [m^2]              [1]
 1 Aargau            4.90e8 Z (((2633150 1232128 507…    1.40e9             34.9
 2 Appenzell Au…     7.66e7 Z (((2734883 1236930 914…    2.43e8             31.6
 3 Appenzell In…     4.72e7 Z (((2743415 1237217 139…    1.72e8             27.4
 4 Basel-Landsc…     2.03e8 Z (((2598695 1247723 659…    5.18e8             39.1
 5 Basel-Stadt       4.65e6 Z (((2611657 1263777 345…    3.70e7             12.6
 6 Bern              1.67e9 Z (((2557233 1215403 117…    5.96e9             28.0
 7 Fribourg          4.18e8 Z (((2554089 1149765 757…    1.67e9             25.0
 8 Genève            3.27e7 Z (((2487082 1110179 425…    2.82e8             11.6
 9 Glarus            1.66e8 Z (((2714699 1188445 148…    6.85e8             24.3
10 Graubünden        1.61e9 Z (((2708261 1162316 169…    7.11e9             22.7
# ℹ 16 more rows
…
